{'cHHcHW': {'GAU': 2, 'GGA': 2, 'GGC': 1, 'UAA': 1},
 'cHHtHW': {'UAU': 2, 'UUC': 1},
 'cHScSH': {'ACG': 1},
 'cHScSW': {'AAC': 1,
            'AAU': 1,
            'ACG': 2,
            'AGA': 2,
            'AGC': 5,
            'CAA': 1,
            'CGC': 1,
            'CUA': 1,
            'GGU': 1,
            'UCG': 2,
            'UGA': 8,
            'UGC': 1,
            'UGG': 1,
            'UUG': 1},
 'cHStSW': {'AAC': 1, 'AAU': 1, 'AGC': 1, 'CUA': 1, 'UGA': 3},
 'cHWcWH': {'AAU': 1, 'ACU': 1, 'AUU': 5, 'GCC': 1, 'UUA': 1},
 'cHWcWW': {'AAG': 2,
            'AAU': 1,
            'ACG': 3,
            'ACU': 9,
            'AGC': 3,
            'AGG': 4,
            'AGU': 5,
            'AUA': 10,
            'AUC': 4,
            'AUG': 1,
            'AUU': 17,
            'CAU': 1,
            'CCG': 13,
            'CCU': 1,
            'CGA': 4,
            'CGC': 5,
            'CGG': 11,
            'CGU': 3,
            'CUA': 3,
            'CUG': 10,
            'CUU': 2,
            'GAA': 2,
            'GAG': 2,
            'GAU': 5,
            'GCA': 3,
            'GCC': 8,
            'GCG': 3,
            'GCU': 1,
            'GGA': 1,
            'GGC': 11,
            'GGG': 2,
            'GUA': 1,
            'GUC': 11,
            'GUG': 1,
            'GUU': 2,
            'UAA': 1,
            'UAC': 1,
            'UAG': 6,
            'UAU': 4,
            'UCA': 1,
            'UGA': 3,
            'UGC': 1,
            'UGU': 8,
            'UUA': 3,
            'UUC': 2,
            'UUG': 2},
 'cHWtWW': {'ACG': 1,
            'AUG': 1,
            'AUU': 2,
            'CAU': 1,
            'CUU': 1,
            'GCA': 1,
            'GUA': 1,
            'UAC': 1,
            'UCC': 1,
            'UUA': 1,
            'UUC': 1},
 'cSHcHS': {'CAG': 1},
 'cSHcHW': {'CAC': 2,
            'CAG': 1,
            'CGU': 1,
            'CUU': 1,
            'GGU': 1,
            'UGC': 1,
            'UGG': 1,
            'UUC': 1},
 'cSHtHW': {'AGC': 2,
            'CAG': 1,
            'CAU': 2,
            'CCG': 1,
            'GAC': 2,
            'GAU': 1,
            'GCC': 1,
            'GGC': 4,
            'UAC': 1,
            'UAU': 8,
            'UGC': 1,
            'UUA': 1},
 'cSStSH': {'ACG': 1, 'AGC': 1},
 'cSStSW': {'ACG': 34,
            'AGC': 24,
            'AUA': 1,
            'CAG': 1,
            'CGG': 16,
            'CUA': 1,
            'GCC': 1,
            'GCG': 4,
            'GGC': 5,
            'UCG': 1,
            'UGC': 1},
 'cSWcWH': {'AAU': 1,
            'CAG': 1,
            'GAA': 3,
            'GAC': 1,
            'GCU': 1,
            'UAA': 1,
            'UCG': 1},
 'cSWcWW': {'AAA': 2,
            'AAU': 2,
            'ACU': 2,
            'AGC': 13,
            'AGU': 7,
            'AUA': 4,
            'AUG': 9,
            'AUU': 2,
            'CAG': 10,
            'CCG': 4,
            'CGA': 20,
            'CGG': 5,
            'CGU': 6,
            'CUG': 11,
            'GAC': 3,
            'GAU': 1,
            'GCA': 3,
            'GCC': 2,
            'GCG': 4,
            'GCU': 1,
            'GGA': 1,
            'GGC': 1,
            'GGU': 3,
            'GUA': 2,
            'GUC': 7,
            'GUG': 2,
            'GUU': 5,
            'UAA': 3,
            'UAU': 1,
            'UCA': 1,
            'UCG': 2,
            'UGA': 6,
            'UGC': 6,
            'UGG': 2,
            'UUA': 1,
            'UUG': 4},
 'cSWtWH': {'AAC': 6,
            'AAU': 4,
            'AGG': 1,
            'AGU': 1,
            'CAA': 6,
            'CUC': 2,
            'GCG': 2,
            'GGA': 1,
            'GGU': 1,
            'UAA': 4,
            'UGA': 1},
 'cSWtWW': {'AAC': 2,
            'AAG': 4,
            'AAU': 6,
            'AGC': 1,
            'AGU': 12,
            'AUG': 3,
            'CAA': 2,
            'CAG': 2,
            'CAU': 1,
            'CCG': 1,
            'CGA': 1,
            'CGG': 1,
            'GAA': 5,
            'GAC': 2,
            'GAU': 2,
            'GCA': 1,
            'GGC': 2,
            'GGU': 9,
            'GUA': 8,
            'GUC': 6,
            'GUU': 6,
            'UAA': 2,
            'UAC': 1,
            'UAG': 1,
            'UGA': 12,
            'UGG': 5,
            'UUA': 2},
 'cWHcHW': {'AAU': 1, 'CAU': 1, 'CGC': 1, 'CGU': 1, 'UAU': 4, 'UGC': 1},
 'cWWcWW': {'AAU': 2,
            'ACA': 3,
            'ACC': 1,
            'ACG': 10,
            'ACU': 2,
            'AGA': 6,
            'AGC': 7,
            'AGG': 1,
            'AGU': 2,
            'AUA': 20,
            'AUC': 3,
            'AUG': 12,
            'AUU': 12,
            'CAA': 3,
            'CAG': 2,
            'CAU': 4,
            'CCA': 1,
            'CCG': 7,
            'CCU': 2,
            'CGA': 7,
            'CGC': 34,
            'CGG': 9,
            'CGU': 16,
            'CUA': 2,
            'CUC': 2,
            'CUG': 3,
            'CUU': 6,
            'GAC': 2,
            'GAG': 1,
            'GAU': 2,
            'GCA': 10,
            'GCC': 11,
            'GCG': 9,
            'GCU': 30,
            'GGC': 8,
            'GUA': 13,
            'GUC': 3,
            'GUG': 27,
            'GUU': 8,
            'UAA': 4,
            'UAC': 4,
            'UAG': 2,
            'UAU': 21,
            'UCA': 1,
            'UCC': 2,
            'UCG': 20,
            'UCU': 5,
            'UGA': 3,
            'UGC': 6,
            'UGG': 25,
            'UGU': 21,
            'UUA': 11,
            'UUC': 3,
            'UUG': 59,
            'UUU': 8},
 'tHHcHH': {'AAU': 2,
            'ACG': 1,
            'AGA': 2,
            'AGC': 3,
            'AUA': 3,
            'CAG': 1,
            'CGG': 1,
            'GAC': 3,
            'GCG': 1,
            'UAA': 3},
 'tHHcHW': {'CGG': 2, 'GAG': 1, 'GGA': 3, 'GGC': 2},
 'tHHtHH': {'AGU': 1, 'GAU': 1, 'GGC': 2},
 'tHHtHW': {'AAU': 1, 'GAU': 6, 'UAA': 1},
 'tHScSH': {'AAU': 1, 'ACG': 2, 'AGC': 6, 'GGC': 10, 'UGA': 4, 'UGC': 1},
 'tHScSW': {'AGC': 1, 'AUG': 1, 'GUC': 1, 'UGG': 4},
 'tHStSH': {'AAU': 1, 'AGA': 2, 'CGG': 1, 'GGC': 1},
 'tHStSW': {'ACU': 1, 'AGA': 1, 'UCA': 1},
 'tHWcWH': {'AAG': 3,
            'AGU': 1,
            'AUC': 2,
            'AUG': 1,
            'AUU': 22,
            'CGG': 1,
            'CUA': 2,
            'GCC': 6,
            'GGC': 1,
            'GGG': 2,
            'UCA': 9,
            'UGA': 5,
            'UUA': 4},
 'tHWcWW': {'AAG': 1,
            'AAU': 3,
            'ACC': 16,
            'ACG': 10,
            'ACU': 6,
            'AGC': 3,
            'AGU': 2,
            'AUA': 12,
            'AUC': 35,
            'AUU': 21,
            'CCC': 6,
            'CCG': 7,
            'CGA': 2,
            'CGC': 2,
            'CGG': 3,
            'CGU': 4,
            'CUA': 1,
            'CUG': 1,
            'CUU': 2,
            'GAA': 1,
            'GCA': 9,
            'GCC': 20,
            'GCG': 9,
            'GCU': 6,
            'GGC': 2,
            'GGU': 1,
            'GUA': 1,
            'GUC': 1,
            'GUG': 3,
            'GUU': 1,
            'UAA': 2,
            'UAC': 10,
            'UAG': 3,
            'UAU': 2,
            'UCA': 17,
            'UCG': 2,
            'UGA': 1,
            'UGC': 4,
            'UGG': 1,
            'UGU': 4,
            'UUA': 11,
            'UUC': 2,
            'UUG': 3},
 'tHWtWH': {'ACC': 1,
            'ACU': 12,
            'AUG': 1,
            'AUU': 17,
            'CCA': 1,
            'CGG': 4,
            'GCC': 4,
            'GGC': 4,
            'GUG': 1,
            'UCA': 1,
            'UUA': 3},
 'tHWtWW': {'AAG': 1,
            'ACC': 13,
            'ACG': 1,
            'ACU': 15,
            'AGC': 1,
            'AUA': 7,
            'AUU': 1,
            'CCG': 1,
            'CUG': 4,
            'GAU': 5,
            'GCC': 6,
            'GCU': 1,
            'GGU': 5,
            'GUC': 4,
            'GUU': 9,
            'UCA': 1,
            'UCG': 1,
            'UGG': 2,
            'UGU': 2,
            'UUG': 3,
            'UUU': 2},
 'tSHcHS': {'AAU': 1, 'CAG': 2, 'GAC': 6, 'GGC': 10, 'GUA': 4, 'GUC': 1},
 'tSHcHW': {'AAU': 1, 'ACG': 1, 'CGG': 1, 'GCA': 1, 'UAA': 1},
 'tSHtHH': {'CAU': 1, 'UAC': 1},
 'tSHtHS': {'AAU': 1, 'GCG': 1, 'GGC': 1},
 'tSHtHW': {'GGC': 1, 'UAA': 2, 'UAU': 2},
 'tSScSS': {'ACG': 1, 'CAG': 1, 'CGG': 3, 'GCG': 3},
 'tSScSW': {'AGU': 1, 'UGA': 1},
 'tSWcWS': {'AAG': 1,
            'AAU': 1,
            'AGC': 1,
            'AUU': 1,
            'CAG': 5,
            'CGA': 1,
            'CGG': 1,
            'CUG': 2,
            'GAA': 1,
            'GAC': 2,
            'GAU': 1,
            'GUC': 1,
            'UAA': 1,
            'UAG': 1},
 'tSWcWW': {'AAA': 2,
            'AAG': 2,
            'ACU': 2,
            'AGU': 1,
            'AUG': 8,
            'AUU': 6,
            'CAA': 1,
            'CAG': 27,
            'CCA': 3,
            'CCG': 2,
            'CGA': 36,
            'CGC': 1,
            'CGG': 13,
            'CGU': 4,
            'CUA': 7,
            'CUG': 3,
            'CUU': 1,
            'GAA': 1,
            'GAC': 4,
            'GCA': 2,
            'GCC': 2,
            'GCG': 17,
            'GCU': 4,
            'GUA': 5,
            'GUC': 3,
            'GUU': 1,
            'UAA': 3,
            'UAC': 1,
            'UCA': 1,
            'UCG': 3,
            'UGA': 2,
            'UGC': 1,
            'UUA': 3,
            'UUC': 1,
            'UUG': 1,
            'UUU': 6},
 'tSWtWW': {'CAU': 1, 'GCC': 10, 'GGC': 1, 'UAC': 1},
 'tWHcHW': {'AAG': 6,
            'AAU': 1,
            'ACG': 1,
            'CCC': 2,
            'CGC': 6,
            'CUA': 9,
            'GAA': 3,
            'GCA': 1,
            'GCG': 1,
            'GGC': 1,
            'GUA': 4,
            'UAA': 1,
            'UAG': 1,
            'UAU': 24,
            'UUA': 4},
 'tWHtHW': {'AAG': 1,
            'AAU': 1,
            'CAU': 12,
            'CGC': 4,
            'CUA': 1,
            'GAA': 1,
            'UAA': 1,
            'UAG': 1,
            'UAU': 19,
            'UGG': 1,
            'UUA': 3},
 'tWScSW': {'ACG': 4, 'AGC': 1, 'GCG': 1, 'UAU': 1, 'UCG': 2, 'UGC': 1},
 'tWWcWW': {'ACG': 4,
            'ACU': 1,
            'AGC': 25,
            'AGG': 1,
            'AGU': 6,
            'AUA': 2,
            'AUC': 2,
            'AUG': 4,
            'AUU': 5,
            'CAG': 1,
            'CCA': 26,
            'CCG': 12,
            'CCU': 1,
            'CGA': 46,
            'CGC': 2,
            'CGG': 13,
            'CGU': 12,
            'CUA': 16,
            'CUC': 1,
            'GAC': 4,
            'GAU': 3,
            'GCA': 28,
            'GCC': 2,
            'GCG': 10,
            'GCU': 9,
            'GGA': 1,
            'GGC': 3,
            'GUA': 3,
            'GUG': 11,
            'GUU': 3,
            'UAA': 2,
            'UAG': 2,
            'UAU': 5,
            'UCA': 15,
            'UCC': 2,
            'UCG': 3,
            'UGA': 4,
            'UGC': 6,
            'UGG': 3,
            'UGU': 6,
            'UUA': 2,
            'UUG': 1},
 'tWWtWW': {'AUU': 1, 'CCG': 10, 'UUA': 1, 'UUU': 2}}