,file,id,number,nucl1,nucl2,nucl3,bps
0,1YG3,3507,8,A.G.6.,A.C.15.,A. A.24.,3
1,2QWY,7976,1,A.C.2.,A.G.30.,B.G.1.,3
2,2QWY,7976,1,A.G.8.,A.C.23.,A.G.42.,3
3,2JYF,5039,2,A.A.6.,A.U.36.,B.A.64.,3
4,1YG3,3498,18,A.G.4.,A.C.17.,A.A.21.,3
5,2QWY,7976,1,C.G.8.,C.C.23.,C.G.42.,3
6,2N6Q,7486,7,A.C.4.,A.G.18.,A.A.23.,3
7,2N6Q,7484,5,A.C.5.,A.G.17.,A.A.24.,3
8,1YG3,3491,11,A.A.3.,A.U.18.,A.A.20.,3
9,1YG3,3489,1,A.G.6.,A.C.15.,A.A.24.,3
10,3L3C,8718,1,G.C.2.,H.A.-1.,R.G.56.,3
11,5JBH,10318,1,A.C.4.,A.G.18.,A.A.23.,3
12,5E08,10103,1,C.U.8.,C.A.14.,C.A.21.,3
13,2ADT,3897,11,A.A.6.,A.U.36.,B.A.64.,3
14,2RP0,8047,28,A.G.7.,A.C.16.,A.A.25.,3
15,1E95,575,1,A.C.2.,A.G.18.,A.A.21.,3
16,2RP0,8049,4,A.G.7.,A.C.16.,A.A.25.,3
17,4MGN,9412,1,B.U.8.,B.A.14.,B.A.20.,3
18,1E95,579,13,A.C.2.,A.G.18.,A.A.21.,3
19,1YG3,3502,3,A.U.5.,A.A.16.,A.A.22.,3
20,1YG3,3503,4,A.G.6.,A.C.15.,A.A.24.,3
21,1YG3,3496,16,A.G.6.,A.C.15.,A.A.24.,3
22,28SP,3811,6,A.U.5.,A.C.22.,A.G.24.,3
23,2QWY,7976,1,B.G.8.,B.C.23.,B.G.42.,3
24,1YG3,3501,20,A.G.4.,A.C.17.,A.A.21.,3
25,2A43,3819,1,A.G.5.,A.C.14.,A.A.23.,3
26,28SR,3813,1,A.U.5.,A.C.22.,A.G.24.,3
27,4YVJ,9938,1,C.U.8.,C.A.14.,C.A.21.,3
28,3FOZ,8519,1,D.U.8.,D.A.14.,D.A.21.,3
29,4KZZ,9365,1,j.U.8.,j.A.14.,j.A.20.,3
30,4WC3,9820,1,B.A.9.,B.U.12.,B.A.23.,3
31,4YYE,9941,1,D.U.8.,D.A.14.,D.A.21.,3
32,1OB5,2264,1,F.U.8.,F.A.14.,F.A.21.,3
33,1OB5,2264,1,D.U.8.,D.A.14.,D.A.21.,3
34,1OB5,2264,1,B.U.8.,B.A.14.,B.A.21.,3
35,1OB2,2263,1,B.U.8.,B.A.14.,B.A.21.,3
36,2NZ4,7683,1,G.C.2.,H.A.-1.,R.G.56.,3
37,2N8V,7608,9,X.G.1.,X.C.55.,X.G.56.,3
38,2ZM5,8332,1,C.U.8.,C.A.14.,C.A.21.,3
39,1YG3,3506,7,A.G.4.,A.C.17.,A.A.21.,3
40,1E95,587,7,A.A.7.,A.C.11.,A.G.31.,3
41,1EFW,617,1,D.A.3.,D.U.70.,D.C.71.,3
42,1EHT,621,10,A.U.6.,A.U.23.,A.A.28.,3
43,2RRC,8117,10,A.C.6.,A.G.15.,A.A.16.,3
44,2AP0,3952,20,A.G.4.,A.C.17.,A.A.21.,3
45,2ZZN,8340,1,C.U.8.,C.A.14.,C.A.47.,3
46,2AP0,3953,3,A.G.7.,A.C.14.,A.A.27.,3
47,2AP0,3955,5,A.G.7.,A.C.14.,A.A.27.,3
48,1EXY,742,1,A.C.6.,A.G.25.,A.A.27.,3
49,3FU2,8524,1,C.G.4.,C.C.19.,C.A.27.,3
50,3FU2,8524,1,B.G.4.,B.C.19.,B.A.27.,3
51,1EXY,743,10,A.C.6.,A.G.25.,A.A.27.,3
52,1EXY,744,11,A.C.6.,A.G.25.,A.A.27.,3
53,1EXY,745,12,A.C.6.,A.G.25.,A.A.27.,3
54,4AS1,9079,1,B.G.9.,B.G.12.,B.C.23.,3
55,2AP0,3959,9,A.G.6.,A.C.15.,A.A.24.,3
56,1EXY,747,3,A.C.6.,A.G.25.,A.A.27.,3
57,1EXY,748,4,A.C.6.,A.G.25.,A.A.27.,3
58,2I7E,4749,7,A.A.6.,A.U.36.,B.A.64.,3
59,1EXY,749,5,A.C.6.,A.G.25.,A.A.27.,3
60,3B0V,8381,1,A.U.8.,A.G.15.,A.C.48.,3
61,2ZXU,8337,1,C.U.8.,C.A.14.,C.A.21.,3
62,1ESY,712,5,A.A.5.,A.U.14.,A.A.15.,3
63,2MTJ,7143,19,A.C.7.,A.U.22.,A.U.40.,3
64,1R2P,2683,7,A.U.7.,A.G.26.,A.A.28.,3
65,1YLG,3538,9,A.U.6.,A.G.24.,A.A.26.,3
66,5JBJ,10319,1,A.C.4.,A.G.18.,A.A.23.,3
67,2RRC,8121,4,A.C.6.,A.G.15.,A.A.16.,3
68,2MTK,7170,5,A.C.7.,A.U.22.,A.U.40.,3
69,2NZ4,7683,1,E.G.7.,P.G.27.,P.C.52.,3
70,2RRC,8125,8,A.C.6.,A.G.15.,A.A.16.,3
71,1EHT,626,6,A.U.6.,A.U.23.,A.A.28.,3
72,2MTK,7161,16,A.C.7.,A.U.22.,A.U.40.,3
73,2MTJ,7145,20,A.C.7.,A.U.22.,A.U.40.,3
74,1EHT,627,7,A.U.6.,A.U.23.,A.A.28.,3
75,2MTK,7159,14,A.C.7.,A.U.22.,A.U.40.,3
76,2MTK,7157,12,A.C.7.,A.U.22.,A.U.40.,3
77,2AP0,3943,12,A.G.4.,A.C.17.,A.A.21.,3
78,1ESY,698,10,A.A.5.,A.U.14.,A.A.15.,3
79,2AP0,3944,13,A.G.6.,A.C.15.,A.A.24.,3
80,2MTJ,7147,3,A.C.7.,A.U.22.,A.U.40.,3
81,4YVK,9939,1,C.U.8.,C.A.14.,C.A.21.,3
82,1YG3,3494,14,A.G.4.,A.C.17.,A.A.21.,3
83,1KPY,1766,13,A.G.7.,A.C.16.,A.A.25.,3
84,5JB3,10316,1,A.C.4.,A.G.18.,A.A.23.,3
85,2L1V,5773,18,A.G.6.,A.C.21.,A.A.29.,3
86,4AQ7,9075,1,E.G.9.,E.G.12.,E.C.23.,3
87,2L1V,5768,13,A.G.6.,A.C.21.,A.A.29.,3
88,1L2X,1784,1,A.C.8.,A.G.12.,A.C.26.,3
89,2L1V,5766,11,A.G.6.,A.C.21.,A.A.29.,3
90,3EPH,8495,1,F.U.8.,F.A.14.,F.A.21.,3
91,3EPJ,8496,1,F.U.8.,F.A.14.,F.A.21.,3
92,2D17,4070,2,A.G.9.,A.C.11.,B.G.6.,3
93,3J92,8661,1,2.U.8.,2.A.14.,2.A.21.,3
94,5H1L,10218,1,D.U.7.,D.A.13.,D.A.21.,3
95,2BYT,4013,1,B.G.9.,B.G.12.,B.C.23.,3
96,2BTE,4010,1,B.G.9.,B.G.12.,B.C.23.,3
97,2B63,3983,1,R.G.4.,R.C.14.,R.G.32.,3
98,3KFU,8705,1,K.U.8.,K.A.14.,K.A.21.,3
99,4WWT,9873,1,4.U.8.,4.A.14.,4.A.22.,3
100,3KFU,8705,1,L.U.8.,L.A.14.,L.A.21.,3
101,3KFU,8705,1,M.U.8.,M.A.14.,M.A.21.,3
102,2NZ4,7683,1,H.G.7.,S.G.27.,S.C.52.,3
103,2M8K,6652,5,A.U.4.,A.A.25.,A.U.33.,3
104,2RFK,7997,1,D.G.2.,E.C.19.,E.A.21.,3
105,4V4J,9649,1,2.A.9.,2.U.12.,2.A.23.,3
106,4TZZ,9578,1,K.U.8.,K.A.14.,K.A.20.,3
107,5MDZ,10450,1,5.U.7.,5.A.13.,5.A.21.,3
108,1QRU,2632,1,B.U.8.,B.A.14.,B.A.21.,3
109,5LMS,10409,1,2.U.8.,2.A.14.,2.A.21.,3
110,5H3U,10219,1,C.U.8.,C.A.14.,C.A.21.,3
111,5H3U,10219,1,D.U.8.,D.A.14.,D.A.21.,3
112,5H1L,10218,1,C.U.7.,C.A.13.,C.A.21.,3
113,3KFU,8705,1,N.U.8.,N.A.14.,N.A.21.,3
114,1KPY,1771,4,A.G.7.,A.C.16.,A.A.25.,3
115,2M8K,6639,11,A.U.4.,A.A.25.,A.U.33.,3
116,3JAI,8670,1,2.U.8.,2.A.14.,2.A.21.,3
117,2LC8,6109,9,A.C.7.,A.G.35.,A.G.36.,3
118,1JUR,1598,6,A.C.4.,A.G.17.,A.A.18.,3
119,1GTS,1117,1,B.U.8.,B.A.14.,B.A.21.,3
120,2M8K,6645,17,A.U.4.,A.A.25.,A.U.33.,3
121,2L1V,5783,9,A.G.6.,A.C.21.,A.A.29.,3
122,2L1V,5780,6,A.G.6.,A.C.21.,A.A.29.,3
123,2MTJ,7135,11,A.C.7.,A.U.22.,A.U.40.,3
124,2MTJ,7142,18,A.C.7.,A.U.22.,A.U.40.,3
125,4TZZ,9578,1,H.U.8.,H.A.14.,H.A.20.,3
126,2MTJ,7144,2,A.U.6.,A.C.23.,A.U.41.,3
127,1EHT,624,4,A.U.6.,A.U.23.,A.A.28.,3
128,1E95,587,7,A.C.2.,A.G.18.,A.A.21.,3
129,2ADT,3907,20,A.U.7.,A.A.37.,A.A.38.,3
130,1E95,584,4,A.G.1.,A.C.19.,A.C.20.,3
131,1E95,583,3,A.C.2.,A.G.18.,A.A.21.,3
132,1E95,579,13,A.A.7.,A.C.11.,A.G.31.,3
133,1TTT,3086,1,F.A.9.,F.U.12.,F.A.23.,3
134,1TTT,3086,1,D.U.8.,D.A.14.,D.A.21.,3
135,2RP0,8027,1,A.G.7.,A.C.16.,A.A.25.,3
136,5E08,10103,1,E.U.8.,E.A.14.,E.A.21.,3
137,5LMU,10411,1,2.U.8.,2.A.14.,2.A.21.,3
138,2N6Q,7481,2,A.C.5.,A.G.17.,A.A.24.,3
139,1YG3,3489,1,A.G.4.,A.C.17.,A.A.21.,3
140,3ZJT,8967,1,B.G.9.,B.G.12.,B.C.23.,3
141,2N6Q,7482,3,A.C.4.,A.G.18.,A.A.23.,3
142,1YNG,3636,8,A.U.6.,A.G.24.,A.A.26.,3
143,5LMT,10410,1,2.U.8.,2.A.14.,2.A.21.,3
144,1EHT,628,8,A.U.6.,A.U.23.,A.A.28.,3
145,2AP0,3942,11,A.G.4.,A.C.17.,A.A.21.,3
146,2AP0,3943,12,A.G.6.,A.C.15.,A.A.24.,3
147,2AP0,3950,19,A.G.6.,A.C.15.,A.A.24.,3
148,2MTJ,7146,21,A.C.7.,A.U.22.,A.U.40.,3
149,2AP0,3959,9,A.G.4.,A.C.17.,A.A.21.,3
150,1YLG,3536,7,A.U.6.,A.G.24.,A.A.26.,3
151,2MTK,7154,1,A.C.7.,A.U.22.,A.U.40.,3
152,2AP0,3957,7,A.G.4.,A.C.17.,A.A.21.,3
153,4CQN,9168,1,E.G.9.,E.G.12.,E.C.23.,3
154,2AP0,3952,20,A.G.6.,A.C.15.,A.A.24.,3
155,1ESY,716,9,A.A.5.,A.U.14.,A.A.15.,3
156,1ESY,697,1,A.A.5.,A.U.14.,A.A.15.,3
157,1ESY,713,6,A.A.5.,A.U.14.,A.A.15.,3
158,2MTK,7171,6,A.C.7.,A.U.22.,A.U.40.,3
159,1ESY,711,4,A.A.5.,A.U.14.,A.A.15.,3
160,1YLG,3528,18,A.U.6.,A.G.24.,A.A.26.,3
161,1ESY,706,18,A.A.5.,A.U.14.,A.A.15.,3
162,1YG3,3494,14,A.G.6.,A.C.15.,A.A.24.,3
163,2AP0,3944,13,A.G.4.,A.C.17.,A.A.21.,3
164,1EXY,750,6,A.C.6.,A.G.25.,A.A.27.,3
165,1EXY,751,7,A.C.6.,A.G.25.,A.A.27.,3
166,3G8T,8533,1,G.C.2.,H.A.-1.,R.G.56.,3
167,8DRH,10480,1,y.U.7.,y.A.13.,y.A.21.,3
168,2TRA,8197,1,A.U.1.,A.A.71.,A.G.72.,3
169,2AP0,3955,5,A.G.4.,A.C.17.,A.A.21.,3
170,2AP0,3953,3,A.G.4.,A.C.17.,A.A.21.,3
171,2L1V,5764,1,A.G.6.,A.C.21.,A.A.29.,3
172,2AP0,3951,2,A.G.6.,A.C.15.,A.A.24.,3
173,2MTK,7165,2,A.C.7.,A.U.22.,A.U.40.,3
174,2AP0,3949,18,A.G.6.,A.C.15.,A.A.24.,3
175,1ESY,715,8,A.A.5.,A.U.14.,A.A.15.,3
176,2MTK,7167,21,A.C.7.,A.U.22.,A.U.40.,3
177,2MTK,7169,4,A.C.7.,A.U.22.,A.U.40.,3
178,2AP0,3948,17,A.G.4.,A.C.17.,A.A.21.,3
179,1ESY,710,3,A.A.5.,A.U.14.,A.A.15.,3
180,2AP0,3947,16,A.G.6.,A.C.15.,A.A.24.,3
181,1ESY,708,2,A.A.5.,A.U.14.,A.A.15.,3
182,1ESY,705,17,A.A.5.,A.U.14.,A.A.15.,3
183,2AP0,3946,15,A.G.4.,A.C.17.,A.A.21.,3
184,1ESY,703,15,A.A.5.,A.U.14.,A.A.15.,3
185,2MTJ,7152,8,A.C.7.,A.U.22.,A.U.40.,3
186,2MTJ,7150,6,A.C.7.,A.U.22.,A.U.40.,3
187,1EXY,752,8,A.C.6.,A.G.25.,A.A.27.,3
188,2MTJ,7148,4,A.C.7.,A.U.22.,A.U.40.,3
189,3JAH,8669,1,2.U.8.,2.A.14.,2.A.21.,3
190,3G9C,8535,1,G.G.7.,R.G.27.,R.C.52.,3
191,3G9C,8535,1,E.G.7.,P.G.27.,P.C.52.,3
192,4QEI,9504,1,C.U.8.,C.A.14.,C.A.21.,3
193,4ARC,9077,1,B.G.9.,B.G.12.,B.C.23.,3
194,2BTE,4010,1,E.G.9.,E.G.12.,E.C.23.,3
195,3FOZ,8519,1,C.U.8.,C.A.14.,C.A.21.,3
196,3FU2,8524,1,A.G.4.,A.C.19.,A.A.27.,3
197,2I7Z,4765,3,A.A.6.,A.U.36.,B.A.64.,3
198,3K1V,8696,1,A.G.4.,A.C.19.,A.A.27.,3
199,2MTJ,7133,1,A.C.7.,A.U.22.,A.U.40.,3
200,2XDD,8248,1,G.G.2.,G.C.15.,G.A.19.,3
201,3G8T,8533,1,F.G.7.,Q.G.27.,Q.C.52.,3
202,2MTJ,7135,11,A.C.5.,A.C.23.,A.G.42.,3
203,2MTJ,7136,12,A.C.7.,A.U.22.,A.U.40.,3
204,2AP5,3960,1,A.G.6.,A.C.15.,A.A.24.,3
205,2AP0,3959,9,A.G.7.,A.C.14.,A.A.27.,3
206,2MTK,7174,9,A.C.7.,A.U.22.,A.U.40.,3
207,1ESY,701,13,A.A.5.,A.U.14.,A.A.15.,3
208,1ESY,699,11,A.A.5.,A.U.14.,A.A.15.,3
209,5JC3,10320,1,A.C.4.,A.G.18.,A.A.23.,3
210,1YG3,3489,1,A.U.5.,A.A.16.,A.A.22.,3
211,3JAP,8674,1,1.U.8.,1.C.13.,1.G.22.,3
212,1YNG,3635,7,A.U.6.,A.G.24.,A.A.26.,3
213,1YG3,3490,10,A.G.4.,A.C.17.,A.A.21.,3
214,4KR3,9350,1,C.U.8.,C.A.14.,C.A.21.,3
215,1YG3,3492,12,A.G.4.,A.C.17.,A.A.21.,3
216,2N6Q,7487,8,A.C.4.,A.G.18.,A.A.23.,3
217,2N6Q,7488,9,A.C.4.,A.G.18.,A.A.23.,3
218,1YG3,3502,3,A.G.4.,A.C.17.,A.A.21.,3
219,4OQU,9464,1,A.A.9.,A.G.23.,A.C.49.,3
220,2QWY,7976,1,B.A.9.,B.G.22.,B.C.43.,3
221,4YVI,9937,1,C.U.8.,C.A.14.,C.A.21.,3
222,5AH5,10000,1,C.G.9.,C.G.12.,C.C.23.,3
223,4YYE,9941,1,C.U.8.,C.A.14.,C.A.21.,3
224,28SP,3812,7,A.U.5.,A.C.22.,A.G.24.,3
225,1QU3,2635,1,T.U.8.,T.A.14.,T.A.21.,3
226,5K78,10348,1,C.C.4.,C.G.13.,C.A.21.,3
227,1YNE,3605,12,A.U.6.,A.G.24.,A.A.26.,3
228,5HP2,10236,1,5.U.7.,5.A.13.,5.A.21.,3
229,2RP0,8041,22,A.G.7.,A.C.16.,A.A.25.,3
230,1E95,586,6,A.C.2.,A.G.18.,A.A.21.,3
231,1EHT,629,9,A.U.6.,A.U.23.,A.A.28.,3
232,2AP0,3941,10,A.G.6.,A.C.15.,A.A.24.,3
233,2RRC,8120,3,A.C.6.,A.G.15.,A.A.16.,3
234,2RRC,8116,1,A.C.6.,A.G.15.,A.A.16.,3
235,1E95,589,9,A.C.5.,A.G.15.,A.U.27.,3
236,1E95,588,8,A.G.1.,A.C.19.,A.C.20.,3
237,1E95,587,7,A.G.1.,A.C.19.,A.C.20.,3
238,1E95,583,3,A.A.7.,A.C.11.,A.G.31.,3
239,1M82,1953,29,A.G.8.,A.C.17.,A.U.18.,3
240,2ADT,3904,18,A.A.6.,A.U.36.,B.A.64.,3
241,1E95,583,3,A.G.1.,A.C.19.,A.C.20.,3
242,1QRT,2631,1,B.U.8.,B.A.14.,B.A.21.,3
243,1E95,580,14,A.G.4.,A.C.16.,A.A.26.,3
244,1E95,578,12,A.C.2.,A.G.18.,A.A.21.,3
245,2NR0,7674,1,G.G.9.,G.G.12.,G.C.23.,3
246,2RP0,8046,27,A.G.7.,A.C.16.,A.A.25.,3
247,3EPL,8498,1,E.U.8.,E.G.15.,E.C.48.,3
248,1QF6,2599,1,B.U.8.,B.A.14.,B.A.21.,3
249,3EPJ,8496,1,E.U.8.,E.A.14.,E.A.21.,3
250,3WC1,8953,1,P.A.9.,P.A.12.,P.U.23.,3
251,3G96,8534,1,F.G.7.,Q.G.27.,Q.C.52.,3
252,3AKZ,8367,1,F.U.8.,F.A.14.,F.A.21.,3
253,2L1V,5776,20,A.G.6.,A.C.21.,A.A.29.,3
254,2L1V,5781,7,A.G.6.,A.C.21.,A.A.29.,3
255,2L1V,5782,8,A.G.6.,A.C.21.,A.A.29.,3
256,3L3C,8718,1,G.G.7.,R.G.27.,R.C.52.,3
257,2DET,4177,1,C.U.8.,C.A.14.,C.A.21.,3
258,5JB2,10315,1,A.C.4.,A.G.18.,A.A.23.,3
259,3J16,8626,1,L.U.8.,L.A.14.,L.A.21.,3
260,4X0A,9880,1,B.A.8.,B.U.11.,B.A.22.,3
261,3J46,8640,1,p.U.8.,p.A.14.,p.A.21.,3
262,3J46,8640,1,a.U.8.,a.A.14.,a.A.21.,3
263,1KPY,1773,6,A.U.4.,A.A.19.,A.A.21.,3
264,3AL0,8368,1,E.U.8.,E.A.14.,E.A.21.,3
265,1FYP,1081,28,A.C.8.,A.G.19.,A.A.20.,3
266,3AKZ,8367,1,H.U.8.,H.A.14.,H.A.21.,3
267,2M58,6598,2,A.G.9.,A.G.10.,A.C.19.,3
268,2L1V,5770,15,A.G.6.,A.C.21.,A.A.29.,3
269,2L1V,5769,14,A.G.6.,A.C.21.,A.A.29.,3
270,2V0G,8207,1,B.G.9.,B.G.12.,B.C.23.,3
271,4AQ7,9075,1,B.G.9.,B.G.12.,B.C.23.,3
272,5LMV,10412,1,2.U.8.,2.A.14.,2.A.21.,3
273,1EXY,753,9,A.C.6.,A.G.25.,A.A.27.,3
274,1L2X,1784,1,A.G.6.,A.C.15.,A.A.23.,3
275,2MI0,6912,4,A.C.7.,A.G.14.,A.G.15.,3
276,2BYT,4013,1,E.G.9.,E.G.12.,E.C.23.,3
277,1QRS,2630,1,B.U.8.,B.A.14.,B.A.21.,3
278,5ME0,10451,1,x.U.8.,x.A.14.,x.A.21.,3
279,4WWE,9872,1,4.U.8.,4.A.14.,4.A.22.,3
280,2V0G,8207,1,F.G.9.,F.G.12.,F.C.23.,3
281,4V4J,9649,1,2.U.8.,2.A.14.,2.A.21.,3
282,4L81,9368,1,A.A.9.,A.G.23.,A.C.49.,3
283,3JAG,8668,1,2.U.8.,2.A.14.,2.A.21.,3
284,3G9C,8535,1,F.G.7.,Q.G.27.,Q.C.52.,3
285,2ZZN,8340,1,D.U.8.,D.A.14.,D.A.47.,3
286,2L1V,5767,12,A.G.6.,A.C.21.,A.A.29.,3
287,3ZJU,8968,1,B.G.9.,B.G.12.,B.C.23.,3
288,1KPY,1769,2,A.C.6.,A.G.17.,A.A.22.,3
289,4YCO,9927,1,E.U.8.,E.A.14.,E.A.21.,3
290,3EPH,8495,1,E.U.8.,E.A.14.,E.A.21.,3
291,2F88,4355,10,A.U.7.,A.G.26.,A.A.28.,3
292,437D,8989,1,A.C.8.,A.G.12.,A.C.26.,3
293,2M8K,6650,3,A.U.4.,A.A.25.,A.U.33.,3
294,2M8K,6651,4,A.U.4.,A.A.25.,A.U.33.,3
295,3ZGZ,8966,1,B.G.9.,B.G.12.,B.C.23.,3
296,5AXM,10015,1,P.U.8.,P.A.14.,P.A.21.,3
297,2L1V,5777,3,A.G.6.,A.C.21.,A.A.29.,3
298,3AKZ,8367,1,E.U.8.,E.A.14.,E.A.21.,3
299,2L1V,5779,5,A.G.6.,A.C.21.,A.A.29.,3
300,4L81,9368,1,A.G.8.,A.C.24.,A.G.48.,3
301,4CXH,9173,1,Y.U.8.,Y.A.14.,Y.A.21.,3
302,2L1V,5775,2,A.G.6.,A.C.21.,A.A.29.,3
303,4LCK,9371,1,B.U.8.,B.A.14.,B.A.20.,3
304,2L1V,5774,19,A.G.6.,A.C.21.,A.A.29.,3
305,5MDY,10449,1,5.U.7.,5.A.13.,5.A.21.,3
306,2L1V,5772,17,A.G.6.,A.C.21.,A.A.29.,3
307,2L1V,5771,16,A.G.6.,A.C.21.,A.A.29.,3
308,3G8S,8532,1,E.C.2.,F.A.-1.,P.G.56.,3
309,3G96,8534,1,G.G.7.,R.G.27.,R.C.52.,3
310,4CQN,9168,1,B.G.9.,B.G.12.,B.C.23.,3
311,2M8K,6644,16,A.U.4.,A.A.25.,A.U.33.,3
312,1KPY,1773,6,A.G.7.,A.C.16.,A.A.25.,3
313,2M58,6596,1,A.G.9.,A.G.10.,A.C.19.,3
314,4TZW,9575,1,B.U.8.,B.A.14.,B.A.20.,3
315,3DEG,8458,1,B.U.8.,B.A.14.,B.A.21.,3
316,1FYP,1069,17,A.C.8.,A.G.19.,A.A.20.,3
317,3L3C,8718,1,F.G.7.,Q.G.27.,Q.C.52.,3
318,2M58,6603,7,A.G.9.,A.G.10.,A.C.19.,3
319,2M58,6604,8,A.G.9.,A.C.12.,A.G.17.,3
320,3TUP,8925,1,T.U.8.,T.A.14.,T.A.21.,3
321,1GTR,1116,1,B.U.8.,B.A.14.,B.A.21.,3
322,2M8K,6638,10,A.U.4.,A.A.25.,A.U.33.,3
323,1KPY,1776,9,A.U.9.,A.C.13.,A.A.27.,3
324,1KPZ,1777,1,A.U.4.,A.A.19.,A.A.21.,3
325,5AOX,10011,1,F.C.3.,F.A.28.,F.G.46.,3
326,3ICQ,8598,1,E.U.8.,E.A.14.,E.A.21.,3
327,3J5S,8642,1,E.U.8.,E.A.14.,E.A.22.,3
328,1FIR,963,1,A.U.8.,A.A.14.,A.A.21.,3
329,4V4I,9648,1,0.A.9.,0.U.12.,0.A.23.,3
330,5JAJ,10314,1,A.C.4.,A.G.18.,A.A.23.,3
331,1ESY,704,16,A.A.5.,A.U.14.,A.A.15.,3
332,1EXY,751,7,A.G.5.,A.U.26.,A.C.28.,3
333,1YG3,3493,13,A.G.4.,A.C.17.,A.A.21.,3
334,1L3D,1785,1,A.C.8.,A.G.12.,A.C.26.,3
335,1EXY,749,5,A.G.5.,A.U.26.,A.C.28.,3
336,3G8T,8533,1,E.C.2.,F.A.-1.,P.G.56.,3
337,1EXY,750,6,A.G.5.,A.U.26.,A.C.28.,3
338,1NBR,2162,9,A.C.7.,A.C.10.,A.G.21.,3
339,2N6Q,7485,6,A.C.4.,A.G.18.,A.A.23.,3
340,3JAJ,8671,1,3.U.8.,3.A.14.,3.A.21.,3
341,1EXY,752,8,A.G.5.,A.U.26.,A.C.28.,3
342,2N6Q,7484,5,A.C.4.,A.G.18.,A.A.23.,3
343,1YG3,3491,11,A.G.4.,A.C.17.,A.A.21.,3
344,3G9C,8535,1,H.G.7.,S.G.27.,S.C.52.,3
345,1WKS,3272,7,A.U.4.,A.U.10.,A.A.14.,3
346,2MTJ,7151,7,A.C.7.,A.U.22.,A.U.40.,3
347,5LWJ,10414,1,2.U.8.,2.A.14.,2.A.21.,3
348,2RP0,8032,14,A.G.7.,A.C.16.,A.A.25.,3
349,4KR2,9349,1,C.U.8.,C.A.14.,C.A.21.,3
350,3EPK,8497,1,F.U.8.,F.A.14.,F.A.21.,3
351,5LI0,10401,1,4.U.8.,4.A.14.,4.A.21.,3
352,4MGN,9412,1,D.U.8.,D.A.14.,D.A.20.,3
353,1EXY,746,2,A.G.5.,A.U.26.,A.C.28.,3
354,3Q51,8845,1,A.C.7.,A.G.11.,A.C.30.,3
355,3J0L,8622,1,W.U.8.,W.A.14.,W.A.21.,3
356,1EXY,745,12,A.G.5.,A.U.26.,A.C.28.,3
357,8DRH,10480,1,x.U.7.,x.A.13.,x.A.21.,3
358,1EXY,744,11,A.G.5.,A.U.26.,A.C.28.,3
359,2L1V,5778,4,A.G.6.,A.C.21.,A.A.29.,3
360,3G8S,8532,1,F.G.7.,Q.G.27.,Q.C.52.,3
361,2MTJ,7149,5,A.C.7.,A.U.22.,A.U.40.,3
362,1E95,589,9,A.C.2.,A.G.18.,A.A.21.,3
363,1EXY,743,10,A.G.5.,A.U.26.,A.C.28.,3
364,1U0B,3108,1,A.U.8.,A.A.14.,A.A.46.,3
365,1EXY,753,9,A.G.5.,A.U.26.,A.C.28.,3
366,2N6Q,7483,4,A.C.4.,A.G.18.,A.A.23.,3
367,1E95,582,2,A.G.1.,A.C.19.,A.C.20.,3
368,2QWY,7976,1,C.A.9.,C.G.22.,C.C.43.,3
369,1KPY,1775,8,A.G.7.,A.C.16.,A.A.25.,3
370,5JBG,10317,1,A.C.4.,A.G.18.,A.A.23.,3
371,5LQW,10413,1,2.U.8.,2.A.14.,2.A.21.,3
372,1E95,577,11,A.C.5.,A.G.15.,A.U.27.,3
373,2MTK,7158,13,A.C.7.,A.U.22.,A.U.40.,3
374,1BVJ,371,21,A.C.6.,A.G.10.,A.A.15.,3
375,2A43,3819,1,A.C.7.,A.G.11.,A.C.26.,3
376,2QWY,7976,1,A.A.9.,A.G.22.,A.C.43.,3
377,1OSW,2320,16,A.G.4.,A.G.17.,A.G.18.,3
378,2RP0,8034,16,A.G.7.,A.C.16.,A.A.25.,3
379,28SP,3810,5,A.U.5.,A.C.22.,A.G.24.,3
380,2MTK,7162,17,A.C.7.,A.U.22.,A.U.40.,3
381,3ZGZ,8966,1,E.G.9.,E.G.12.,E.C.23.,3
382,2NZ4,7683,1,E.C.2.,F.A.-1.,P.G.56.,3
383,5MDW,10448,1,5.U.7.,5.A.13.,5.A.21.,3
384,1K2G,1619,1,A.G.3.,A.C.12.,A.G.22.,3
385,2M58,6601,5,A.G.9.,A.G.10.,A.C.19.,3
386,2N6Q,7479,1,A.C.4.,A.G.18.,A.A.23.,3
387,5LWJ,10416,2,2.U.8.,2.A.14.,2.A.21.,3
388,3J0O,8623,1,W.U.8.,W.A.14.,W.A.21.,3
389,1KPY,1770,3,A.U.4.,A.A.19.,A.A.21.,3
390,2MTK,7166,20,A.C.7.,A.U.22.,A.U.40.,3
391,2N6Q,7480,10,A.C.4.,A.G.18.,A.A.23.,3
392,2DER,4176,1,D.U.8.,D.A.14.,D.A.21.,3
393,2DER,4176,1,C.U.8.,C.A.14.,C.A.21.,3
394,2MTK,7168,3,A.C.7.,A.U.22.,A.U.40.,3
395,5K78,10348,1,A.C.4.,A.G.13.,A.A.21.,3
396,2M58,6597,10,A.G.9.,A.G.10.,A.C.19.,3
397,5LZT,10432,1,4.U.8.,4.A.14.,4.A.22.,3
398,1YG3,3497,17,A.G.4.,A.C.17.,A.A.21.,3
399,2AP5,3960,1,A.G.4.,A.C.17.,A.A.21.,3
400,1EXY,742,1,A.G.5.,A.U.26.,A.C.28.,3
401,1EHT,622,2,A.U.6.,A.U.23.,A.A.28.,3
402,1EHT,623,3,A.U.6.,A.U.23.,A.A.28.,3
403,1NBR,2151,12,A.C.7.,A.C.10.,A.G.21.,3
404,2AP0,3954,4,A.G.6.,A.C.15.,A.A.24.,3
405,1H4S,1174,1,T.U.8.,T.A.14.,T.A.21.,3
406,2AP0,3953,3,A.G.6.,A.C.15.,A.A.24.,3
407,4ARI,9078,1,B.G.9.,B.G.12.,B.C.23.,3
408,2MTJ,7138,14,A.C.7.,A.U.22.,A.U.40.,3
409,2RRC,8118,11,A.C.6.,A.G.15.,A.A.16.,3
410,2RRC,8122,5,A.C.6.,A.G.15.,A.A.16.,3
411,2M8K,6646,18,A.U.4.,A.A.25.,A.U.33.,3
412,2AP0,3951,2,A.G.4.,A.C.17.,A.A.21.,3
413,4MGM,9411,1,A.U.8.,A.A.14.,A.A.20.,3
414,2AP0,3949,18,A.G.4.,A.C.17.,A.A.21.,3
415,1ESY,714,7,A.A.5.,A.U.14.,A.A.15.,3
416,4CXG,9172,1,Y.U.8.,Y.A.14.,Y.A.21.,3
417,1YG3,3503,4,A.G.4.,A.C.17.,A.A.21.,3
418,3WC1,8953,1,Q.A.9.,Q.A.12.,Q.U.23.,3
419,2AP0,3940,1,A.G.4.,A.C.17.,A.A.21.,3
420,2AP0,3947,16,A.G.4.,A.C.17.,A.A.21.,3
421,1ESY,700,12,A.A.5.,A.U.14.,A.A.15.,3
422,2AP0,3948,17,A.G.6.,A.C.15.,A.A.24.,3
423,4YCO,9927,1,F.U.8.,F.A.14.,F.A.21.,3
424,1O15,2260,1,A.U.6.,A.U.23.,A.A.28.,3
425,4YCP,9928,1,B.U.8.,B.A.14.,B.A.21.,3
426,5JCF,10323,1,A.C.4.,A.G.18.,A.A.23.,3
427,1ESY,709,20,A.A.5.,A.U.14.,A.A.15.,3
428,4TZZ,9578,1,B.U.8.,B.A.14.,B.A.20.,3
429,4TZV,9574,1,B.U.8.,B.A.14.,B.A.20.,3
430,1ESY,707,19,A.A.5.,A.U.14.,A.A.15.,3
431,2NZ4,7683,1,F.G.7.,Q.G.27.,Q.C.52.,3
432,2AP0,3945,14,A.G.4.,A.C.17.,A.A.21.,3
433,1ESY,702,14,A.A.5.,A.U.14.,A.A.15.,3
434,5AH5,10000,1,D.G.9.,D.G.12.,D.C.23.,3
435,2AP0,3946,15,A.G.6.,A.C.15.,A.A.24.,3
436,1TTT,3086,1,F.U.8.,F.A.14.,F.A.21.,3
437,2L1V,5765,10,A.G.6.,A.C.21.,A.A.29.,3
438,3JAN,8673,1,3.U.8.,3.A.14.,3.A.21.,3
439,3HJY,8573,1,C.G.2.,D.C.19.,D.A.21.,3
440,2AP0,3956,6,A.G.4.,A.C.17.,A.A.21.,3
441,2NZ4,7683,1,G.G.7.,R.G.27.,R.C.52.,3
442,2AP0,3955,5,A.G.6.,A.C.15.,A.A.24.,3
443,3ZJV,8969,1,B.G.9.,B.G.12.,B.C.23.,3
444,5T83,10466,1,5.U.7.,5.A.13.,5.A.21.,3
445,4YCO,9927,1,D.U.8.,D.A.14.,D.A.21.,3
